<svg width="18" height="18" viewBox="0 0 18 18" fill="none" xmlns="http://www.w3.org/2000/svg">
<path d="M13.4583 2.83203H3.54167C2.75926 2.83203 2.125 3.46629 2.125 4.2487V14.1654C2.125 14.9478 2.75926 15.582 3.54167 15.582H13.4583C14.2407 15.582 14.875 14.9478 14.875 14.1654V4.2487C14.875 3.46629 14.2407 2.83203 13.4583 2.83203Z" stroke="white" stroke-width="1.32813" stroke-linecap="round" stroke-linejoin="round"/>
<path d="M11.3335 1.41797V4.2513" stroke="white" stroke-width="1.32813" stroke-linecap="round" stroke-linejoin="round"/>
<path d="M5.6665 1.41797V4.2513" stroke="white" stroke-width="1.32813" stroke-linecap="round" stroke-linejoin="round"/>
<path d="M2.125 7.08203H14.875" stroke="white" stroke-width="1.32813" stroke-linecap="round" stroke-linejoin="round"/>
</svg>
